…
After this you can create a new subset using the subset method on the Armadillo. First we are going to perform a dry-run to see which output is given by the function.


```r
not_available <- armadillo.subset(
	source_project = "gecko",
	new_project = "study1",
	subset_def = subset_definition,
	dry_run = TRUE
)
#> New names:
#> * `` -> ...1
#> * `` -> ...2
not_available
#> # A tibble: 23 × 3
#>    folder       table      missing      
#>    <chr>        <chr>      <chr>        
#>  1 2_1_core_1_0 yearly_rep green_dist_  
#>  2 2_1_core_1_0 yearly_rep green_size_  
#>  3 2_1_core_1_0 yearly_rep green_access_
#>  4 2_1_core_1_0 yearly_rep ndvi100_     
#>  5 2_1_core_1_0 yearly_rep ndvi300_     
#>  6 2_1_core_1_0 yearly_rep ndvi500_     
#>  7 2_1_core_1_0 yearly_rep blue_dist_   
#>  8 2_1_core_1_0 yearly_rep blue_size_   
#>  9 2_1_core_1_0 yearly_rep blue_access_ 
#> 10 2_1_core_1_0 yearly_rep no2_         
#> # … with 13 more rows
```
…
)
#> New names:
#> * `` -> ...1
#> * `` -> ...2
#> Compressing...
#>   |                                                                                      |                                                                              |   0%  |                                                                                      |==============================================================================| 100%
#> Uploaded 2_1_core_1_0/yearly_rep
#> Compressing...
#>   |                                                                                      |                                                                              |   0%  |                                                                                      |==============================================================================| 100%
#> Uploaded 1_1_outcome_1_0/yearly_rep
#> Compressing...
#>   |                                                                                      |                                                                              |   0%  |                                                                                      |==============================================================================| 100%
#> Uploaded 2_1_core_1_0/non_rep
not_available
#> # A tibble: 23 × 3
#>    folder       table      missing      
#>    <chr>        <chr>      <chr>        
#>  1 2_1_core_1_0 yearly_rep green_dist_  
#>  2 2_1_core_1_0 yearly_rep green_size_  
#>  3 2_1_core_1_0 yearly_rep green_access_
#>  4 2_1_core_1_0 yearly_rep ndvi100_     
#>  5 2_1_core_1_0 yearly_rep ndvi300_     
#>  6 2_1_core_1_0 yearly_rep ndvi500_     
#>  7 2_1_core_1_0 yearly_rep blue_dist_   
#>  8 2_1_core_1_0 yearly_rep blue_size_   
#>  9 2_1_core_1_0 yearly_rep blue_access_ 
#> 10 2_1_core_1_0 yearly_rep no2_         
#> # … with 13 more rows
```
…
