Creating data subsets • MolgenisArmadillo
…
After this you can create a new subset using the subset method on the
Armadillo. First we are going to perform a dry-run to check whether the
required folder, tables and variables are present.

not_available <- armadillo.subset(
    source_project = "gecko",
    new_project = "study1",
    subset_def = subset_definition,
    dry_run = TRUE
)
not_available
#> # A tibble: 23 × 3
#>    folder       table     missing      
#>    <chr>        <chr>     <chr>        
#>  1 2_1-core-1_0 yearlyrep green_dist_  
#>  2 2_1-core-1_0 yearlyrep green_size_  
#>  3 2_1-core-1_0 yearlyrep green_access_
#>  4 2_1-core-1_0 yearlyrep ndvi100_     
#>  5 2_1-core-1_0 yearlyrep ndvi300_     
#>  6 2_1-core-1_0 yearlyrep ndvi500_     
#>  7 2_1-core-1_0 yearlyrep blue_dist_   
#>  8 2_1-core-1_0 yearlyrep blue_size_   
#>  9 2_1-core-1_0 yearlyrep blue_access_ 
#> 10 2_1-core-1_0 yearlyrep no2_         
#> # ℹ 13 more rows
…
armadillo.subset(
    source_project = "gecko",
    new_project = "study1",
    subset_def = subset_definition, 
    dry_run = FALSE
)
#> Created project 'study1'
#> Compressing...
#> Uploaded 2_1-core-1_0/yearlyrep
#> Compressing...
#> Uploaded 1_1-outcome-1_0/yearlyrep
#> Compressing...
#> Uploaded 2_1-core-1_0/nonrep
#> # A tibble: 23 × 3
#>    folder       table     missing      
#>    <chr>        <chr>     <chr>        
#>  1 2_1-core-1_0 yearlyrep green_dist_  
#>  2 2_1-core-1_0 yearlyrep green_size_  
#>  3 2_1-core-1_0 yearlyrep green_access_
#>  4 2_1-core-1_0 yearlyrep ndvi100_     
#>  5 2_1-core-1_0 yearlyrep ndvi300_     
#>  6 2_1-core-1_0 yearlyrep ndvi500_     
#>  7 2_1-core-1_0 yearlyrep blue_dist_   
#>  8 2_1-core-1_0 yearlyrep blue_size_   
#>  9 2_1-core-1_0 yearlyrep blue_access_ 
#> 10 2_1-core-1_0 yearlyrep no2_         
#> # ℹ 13 more rows
…
